@startuml
class org.pyne.jcad.core.math.brep.BrepCurve
class org.pyne.jcad.core.math.brep.BrepSurface
class org.pyne.jcad.core.math.brep.Edge
class org.pyne.jcad.core.math.brep.Face
class org.pyne.jcad.core.math.brep.HalfEdge
class org.pyne.jcad.core.math.brep.Loop
class org.pyne.jcad.core.math.brep.Shell
class org.pyne.jcad.core.math.brep.TopoExplorer
class org.pyne.jcad.core.math.brep.Vertex
interface org.pyne.jcad.core.math.brep.Topo
org.pyne.jcad.core.math.brep.Edge --|> org.pyne.jcad.core.math.brep.Topo
org.pyne.jcad.core.math.brep.Face --|> org.pyne.jcad.core.math.brep.Topo
org.pyne.jcad.core.math.brep.Loop --|> org.pyne.jcad.core.math.brep.Topo
org.pyne.jcad.core.math.brep.Shell --|> org.pyne.jcad.core.math.brep.Topo
org.pyne.jcad.core.math.brep.Vertex --|> org.pyne.jcad.core.math.brep.Topo
@enduml